{
  "SourcePath": "",
  "Destination": {
    "PrefixDir": "",
    "OutputDir": ""
  },
  "IsClearDir": true,
  "Overwrite": {
    "IsForceWrite": true,
    "IsSkipOnExistFiles": true
  },
  "Options": {
    "Format": ""
  },
  "RawConfig": {
    "IsContinueOnError": true,
    "IsSelectiveCompression ": true,
    "IsMkdirAll": true,
    "IsImplicitTopLevelFolder": true,
    "StripComponents": 0,
    "IsSingleThreadedCompress": true
  }
}